{
    "current_page": 1,
    "data": [
        {
            "id": 1,
            "title": "prima prova",
            "content": "Per ch\u00e8 inizia da laggiu???",
            "slug": "prima-prova",
            "created_at": "2022-06-07T13:00:17.000000Z",
            "updated_at": "2022-06-07T13:00:17.000000Z",
            "category_id": 2
        }
    ],
    "first_page_url": "http:\/\/127.0.0.1:8000\/api\/posts?page=1",
    "from": 1,
    "last_page": 2,
    "last_page_url": "http:\/\/127.0.0.1:8000\/api\/posts?page=2",
    "next_page_url": "http:\/\/127.0.0.1:8000\/api\/posts?page=2",
    "path": "http:\/\/127.0.0.1:8000\/api\/posts",
    "per_page": 1,
    "prev_page_url": null,
    "to": 1,
    "total": 2
}
